…
``` r
tibble(
  lat = scan(here("data/lats.txt")),
  lon = scan(here("data/lons.txt")),
  trend = scan(here("data/trends.txt"))
) -> tornado
```

``` r
tornado
## # A tibble: 30,000 x 3
##      lat   lon trend
##    <dbl> <dbl> <dbl>
##  1 0.897 -180.     0
##  2 0.897 -179.     0
##  3 0.897 -178.     0
##  4 0.897 -176.     0
##  5 0.897 -175.     0
##  6 0.897 -174.     0
##  7 0.897 -173.     0
##  8 0.897 -172.     0
##  9 0.897 -170.     0
## 10 0.897 -169.     0
## # … with 29,990 more rows
…
